[I 13:51:14.261 NotebookApp] Using MathJax: 
[I 13:51:14.630 NotebookApp] Apache Spot server extension loaded
[I 13:51:14.630 NotebookApp] Serving notebooks from local directory: /home/spot/apache-spot_jayashri
[I 13:51:14.630 NotebookApp] 0 active kernels 
[I 13:51:14.630 NotebookApp] The IPython Notebook is running at: http://0.0.0.0:8889/
[I 13:51:14.631 NotebookApp] Use Control-C to stop this server and shut down all kernels (twice to skip confirmation).
[I 13:55:23.135 NotebookApp] 302 GET / (10.200.101.60) 1.31ms
[I 13:55:36.842 NotebookApp] 200 POST /graphql (10.200.101.60) 4997.89ms
[I 13:55:42.852 NotebookApp] 200 POST /graphql (10.200.101.60) 714.92ms
[I 13:55:50.892 NotebookApp] 200 POST /graphql (10.200.101.60) 1084.21ms
[I 13:56:12.416 NotebookApp] 200 POST /graphql (10.200.101.60) 714.28ms
[I 14:34:24.736 NotebookApp] 302 GET / (10.200.100.174) 0.83ms
