2018-07-04 21:29:44	2018	7	4	21	29	44	0.688	60.191.49.155	114.143.131.83	1028	80	TCP	5	265	0	0	6.354731127192667E-4
2018-07-04 21:39:06	2018	7	4	21	39	6	1.462	194.29.39.10	114.143.131.83	443	63564	TCP	14	7100	0	0	6.476535556895459E-4
2018-07-04 21:29:44	2018	7	4	21	29	44	0.688	114.143.131.83	60.191.49.155	80	1028	TCP	3	193	0	0	6.483463257497091E-4
2018-07-04 21:29:44	2018	7	4	21	29	44	55.006	114.143.131.83	103.8.45.5	0	29764	ICMP	12	1008	0	0	6.568427478765635E-4
2018-07-04 21:39:06	2018	7	4	21	39	6	1.466	114.143.131.83	194.29.39.10	63564	443	TCP	16	3603	0	0	6.676402969933111E-4
2018-07-04 21:39:12	2018	7	4	21	39	12	0.001	114.143.131.83	103.8.45.5	57580	53	UDP	1	61	0	0	8.373243053096081E-4
2018-07-04 21:39:12	2018	7	4	21	39	12	0.001	114.143.131.83	103.8.45.5	42632	53	UDP	1	61	0	0	8.373243053096081E-4
2018-07-04 21:39:06	2018	7	4	21	39	6	4.997	182.50.136.237	114.143.131.83	80	43217	TCP	6	1146	0	0	8.408605443661921E-4
2018-07-04 21:39:06	2018	7	4	21	39	6	4.998	182.50.136.237	114.143.131.83	80	43216	TCP	6	1179	0	0	8.408605443661921E-4
2018-07-04 21:38:06	2018	7	4	21	38	6	5.202	103.5.198.210	114.143.131.83	80	54907	TCP	5	2155	0	0	8.688558462028861E-4
2018-07-04 21:28:05	2018	7	4	21	28	5	5.175	103.5.198.210	114.143.131.83	80	46103	TCP	5	2668	0	0	8.688558462028861E-4
2018-07-04 21:28:05	2018	7	4	21	28	5	321.024	114.143.131.83	103.5.198.210	46103	80	TCP	13	1650	0	0	8.871305156810188E-4
2018-07-04 21:38:06	2018	7	4	21	38	6	320.26	114.143.131.83	103.5.198.210	54907	80	TCP	13	1650	0	0	8.871305156810188E-4
2018-07-04 21:39:06	2018	7	4	21	39	6	0.145	114.143.131.83	182.50.136.237	43217	80	TCP	5	353	0	0	8.902320410946091E-4
2018-07-04 21:39:06	2018	7	4	21	39	6	0.143	114.143.131.83	182.50.136.237	43216	80	TCP	5	356	0	0	8.902320410946091E-4
2018-07-04 21:25:04	2018	7	4	21	25	4	55.005	103.8.45.5	114.143.131.83	0	54639	ICMP	12	1008	0	0	0.0010524365429251616
2018-07-04 21:25:04	2018	7	4	21	25	4	55.006	103.8.46.5	114.143.131.83	0	54639	ICMP	12	1008	0	0	0.0010524365429251616
2018-07-04 21:25:04	2018	7	4	21	25	4	55.006	114.143.131.81	114.143.131.83	0	54639	ICMP	12	1008	0	0	0.0010524365429251616
2018-07-04 21:28:05	2018	7	4	21	28	5	55.008	114.143.131.83	103.8.45.5	0	29310	ICMP	12	1008	0	0	0.0010609080180091952
2018-07-04 21:28:05	2018	7	4	21	28	5	55.008	114.143.131.83	103.8.46.5	0	29310	ICMP	12	1008	0	0	0.0010609080180091952
2018-07-04 21:28:05	2018	7	4	21	28	5	55.008	114.143.131.83	114.143.131.81	0	29310	ICMP	12	1008	0	0	0.0010609080180091952
2018-07-04 21:28:05	2018	7	4	21	28	5	55.007	103.8.45.5	114.143.131.83	0	32370	ICMP	12	1008	0	0	0.0010654101691321956
2018-07-04 21:28:05	2018	7	4	21	28	5	55.008	103.8.46.5	114.143.131.83	0	32370	ICMP	12	1008	0	0	0.0010654101691321956
2018-07-04 21:28:05	2018	7	4	21	28	5	55.007	114.143.131.81	114.143.131.83	0	32370	ICMP	12	1008	0	0	0.0010654101691321956
2018-07-04 21:36:44	2018	7	4	21	36	44	55.005	114.143.131.83	103.8.45.5	0	31353	ICMP	12	1008	0	0	0.0010704979878310998
2018-07-04 21:36:44	2018	7	4	21	36	44	55.005	114.143.131.83	103.8.46.5	0	31353	ICMP	12	1008	0	0	0.0010704979878310998
2018-07-04 21:37:02	2018	7	4	21	37	2	55.004	114.143.131.83	114.143.131.81	0	31353	ICMP	12	1008	0	0	0.0010704979878310998
2018-07-04 21:39:06	2018	7	4	21	39	6	55.008	103.8.45.5	114.143.131.83	0	16252	ICMP	12	1008	0	0	0.0010723348073565712
2018-07-04 21:39:06	2018	7	4	21	39	6	55.008	103.8.46.5	114.143.131.83	0	16252	ICMP	12	1008	0	0	0.0010723348073565712
2018-07-04 21:39:06	2018	7	4	21	39	6	55.008	114.143.131.81	114.143.131.83	0	16252	ICMP	12	1008	0	0	0.0010723348073565712
2018-07-04 21:36:44	2018	7	4	21	36	44	55.005	103.8.45.5	114.143.131.83	0	31098	ICMP	12	1008	0	0	0.001077495029075502
2018-07-04 21:36:44	2018	7	4	21	36	44	55.004	103.8.46.5	114.143.131.83	0	31098	ICMP	12	1008	0	0	0.001077495029075502
2018-07-04 21:37:02	2018	7	4	21	37	2	55.005	114.143.131.81	114.143.131.83	0	31098	ICMP	12	1008	0	0	0.001077495029075502
2018-07-04 21:35:57	2018	7	4	21	35	57	55.009	103.8.45.5	114.143.131.83	0	38521	ICMP	12	1008	0	0	0.0010779097810611582
2018-07-04 21:35:57	2018	7	4	21	35	57	55.009	103.8.46.5	114.143.131.83	0	38521	ICMP	12	1008	0	0	0.0010779097810611582
2018-07-04 21:35:57	2018	7	4	21	35	57	55.009	114.143.131.81	114.143.131.83	0	38521	ICMP	12	1008	0	0	0.0010779097810611582
2018-07-04 21:38:06	2018	7	4	21	38	6	55.007	114.143.131.83	103.8.45.5	0	31580	ICMP	12	1008	0	0	0.0010808259220315651
2018-07-04 21:38:06	2018	7	4	21	38	6	55.007	114.143.131.83	103.8.46.5	0	31580	ICMP	12	1008	0	0	0.0010808259220315651
2018-07-04 21:38:06	2018	7	4	21	38	6	55.007	114.143.131.83	114.143.131.81	0	31580	ICMP	12	1008	0	0	0.0010808259220315651
2018-07-04 21:26:05	2018	7	4	21	26	5	55.009	103.8.45.5	114.143.131.83	0	47216	ICMP	12	1008	0	0	0.0010818358181067427
2018-07-04 21:26:05	2018	7	4	21	26	5	55.009	103.8.46.5	114.143.131.83	0	47216	ICMP	12	1008	0	0	0.0010818358181067427
2018-07-04 21:26:05	2018	7	4	21	26	5	55.008	114.143.131.81	114.143.131.83	0	47216	ICMP	12	1008	0	0	0.0010818358181067427
2018-07-04 21:39:06	2018	7	4	21	39	6	55.009	114.143.131.83	103.8.45.5	0	31807	ICMP	12	1008	0	0	0.0010860068262779413
2018-07-04 21:39:06	2018	7	4	21	39	6	55.009	114.143.131.83	103.8.46.5	0	31807	ICMP	12	1008	0	0	0.0010860068262779413
2018-07-04 21:39:06	2018	7	4	21	39	6	55.009	114.143.131.83	114.143.131.81	0	31807	ICMP	12	1008	0	0	0.0010860068262779413
2018-07-04 21:29:05	2018	7	4	21	29	5	55.005	103.8.45.5	114.143.131.83	0	24947	ICMP	12	1008	0	0	0.001086425463493309
2018-07-04 21:29:05	2018	7	4	21	29	5	55.004	103.8.46.5	114.143.131.83	0	24947	ICMP	12	1008	0	0	0.001086425463493309
2018-07-04 21:29:05	2018	7	4	21	29	5	55.005	114.143.131.81	114.143.131.83	0	24947	ICMP	12	1008	0	0	0.001086425463493309
2018-07-04 21:26:05	2018	7	4	21	26	5	55.009	114.143.131.83	103.8.45.5	0	28856	ICMP	12	1008	0	0	0.0010866870406462225
2018-07-04 21:26:05	2018	7	4	21	26	5	55.009	114.143.131.83	103.8.46.5	0	28856	ICMP	12	1008	0	0	0.0010866870406462225
2018-07-04 21:26:05	2018	7	4	21	26	5	55.009	114.143.131.83	114.143.131.81	0	28856	ICMP	12	1008	0	0	0.0010866870406462225
2018-07-04 21:35:57	2018	7	4	21	35	57	55.01	114.143.131.83	103.8.45.5	0	31126	ICMP	12	1008	0	0	0.0010906474075694469
2018-07-04 21:35:57	2018	7	4	21	35	57	55.01	114.143.131.83	103.8.46.5	0	31126	ICMP	12	1008	0	0	0.0010906474075694469
2018-07-04 21:35:57	2018	7	4	21	35	57	55.01	114.143.131.83	114.143.131.81	0	31126	ICMP	12	1008	0	0	0.0010906474075694469
2018-07-04 21:25:04	2018	7	4	21	25	4	55.007	114.143.131.83	103.8.45.5	0	28629	ICMP	12	1008	0	0	0.0010917602650402066
2018-07-04 21:25:04	2018	7	4	21	25	4	55.006	114.143.131.83	103.8.46.5	0	28629	ICMP	12	1008	0	0	0.0010917602650402066
2018-07-04 21:25:04	2018	7	4	21	25	4	55.006	114.143.131.83	114.143.131.81	0	28629	ICMP	12	1008	0	0	0.0010917602650402066
2018-07-04 21:38:06	2018	7	4	21	38	6	55.006	103.8.45.5	114.143.131.83	0	23675	ICMP	12	1008	0	0	0.0010922492933415904
2018-07-04 21:38:06	2018	7	4	21	38	6	55.009	103.8.46.5	114.143.131.83	0	23675	ICMP	12	1008	0	0	0.0010922492933415904
2018-07-04 21:38:06	2018	7	4	21	38	6	55.006	114.143.131.81	114.143.131.83	0	23675	ICMP	12	1008	0	0	0.0010922492933415904
2018-07-04 21:29:05	2018	7	4	21	29	5	55.005	114.143.131.83	103.8.45.5	0	29537	ICMP	12	1008	0	0	0.00110088039975498
2018-07-04 21:29:05	2018	7	4	21	29	5	55.004	114.143.131.83	103.8.46.5	0	29537	ICMP	12	1008	0	0	0.00110088039975498
2018-07-04 21:29:05	2018	7	4	21	29	5	55.004	114.143.131.83	114.143.131.81	0	29537	ICMP	12	1008	0	0	0.00110088039975498
2018-07-04 21:26:44	2018	7	4	21	26	44	55.006	103.8.45.5	114.143.131.83	0	39793	ICMP	12	1008	0	0	0.001108165644246194
2018-07-04 21:26:44	2018	7	4	21	26	44	55.005	103.8.46.5	114.143.131.83	0	39793	ICMP	12	1008	0	0	0.001108165644246194
2018-07-04 21:27:17	2018	7	4	21	27	17	55.006	114.143.131.81	114.143.131.83	0	39793	ICMP	12	1008	0	0	0.001108165644246194
2018-07-04 21:26:44	2018	7	4	21	26	44	55.006	114.143.131.83	103.8.45.5	0	29083	ICMP	12	1008	0	0	0.0011314733174654689
2018-07-04 21:26:44	2018	7	4	21	26	44	55.006	114.143.131.83	103.8.46.5	0	29083	ICMP	12	1008	0	0	0.0011314733174654689
2018-07-04 21:26:44	2018	7	4	21	26	44	55.006	114.143.131.83	114.143.131.81	0	29083	ICMP	12	1008	0	0	0.0011314733174654689
2018-07-04 21:39:06	2018	7	4	21	39	6	22.514	117.232.124.99	201.95.11.159	80	38577	TCP	5	220	0	0	0.008853826956523949
2018-07-04 21:39:06	2018	7	4	21	39	6	0.0	201.95.11.159	117.232.124.99	38577	80	TCP	1	64	0	0	0.00887278951556535
2018-07-04 21:39:06	2018	7	4	21	39	6	55.009	117.232.124.99	117.232.124.97	0	32063	ICMP	12	1008	0	0	0.009137806366552825
2018-07-04 21:38:06	2018	7	4	21	38	6	55.005	117.232.124.99	117.232.124.97	0	31836	ICMP	12	1008	0	0	0.009202255078953617
2018-07-04 21:29:05	2018	7	4	21	29	5	55.006	117.232.124.97	117.232.124.99	0	24948	ICMP	12	1008	0	0	0.009204252011474673
2018-07-04 21:39:06	2018	7	4	21	39	6	55.008	117.232.124.97	117.232.124.99	0	16253	ICMP	12	1008	0	0	0.009204994408665335
2018-07-04 21:38:06	2018	7	4	21	38	6	55.005	117.232.124.97	117.232.124.99	0	23676	ICMP	12	1008	0	0	0.009210425164754673
2018-07-04 21:27:17	2018	7	4	21	27	17	55.007	117.232.124.99	117.232.124.97	0	29339	ICMP	12	1008	0	0	0.009216350163002417
2018-07-04 21:35:57	2018	7	4	21	35	57	55.008	117.232.124.99	117.232.124.97	0	31382	ICMP	12	1008	0	0	0.009227158517576764
2018-07-04 21:25:04	2018	7	4	21	25	4	55.006	117.232.124.97	117.232.124.99	0	54640	ICMP	12	1008	0	0	0.009242821242230212
2018-07-04 21:26:05	2018	7	4	21	26	5	55.008	117.232.124.97	117.232.124.99	0	47217	ICMP	12	1008	0	0	0.00924457901646823
2018-07-04 21:26:05	2018	7	4	21	26	5	55.008	117.232.124.99	117.232.124.97	0	29112	ICMP	12	1008	0	0	0.009265248508746602
2018-07-04 21:25:04	2018	7	4	21	25	4	55.007	117.232.124.99	117.232.124.97	0	28885	ICMP	12	1008	0	0	0.009271213257723194
2018-07-04 21:29:05	2018	7	4	21	29	5	55.006	117.232.124.99	117.232.124.97	0	29793	ICMP	12	1008	0	0	0.009273662079709418
2018-07-04 21:35:57	2018	7	4	21	35	57	55.008	117.232.124.97	117.232.124.99	0	38522	ICMP	12	1008	0	0	0.009274341213416248
2018-07-04 21:28:05	2018	7	4	21	28	5	55.009	117.232.124.97	117.232.124.99	0	32371	ICMP	12	1008	0	0	0.009276863604945179
2018-07-04 21:27:17	2018	7	4	21	27	17	55.005	117.232.124.97	117.232.124.99	0	39794	ICMP	12	1008	0	0	0.009300776623898705
2018-07-04 21:37:02	2018	7	4	21	37	2	55.005	117.232.124.97	117.232.124.99	0	31099	ICMP	12	1008	0	0	0.009331213308410722
2018-07-04 21:28:05	2018	7	4	21	28	5	55.01	117.232.124.99	117.232.124.97	0	29566	ICMP	12	1008	0	0	0.009384629903750951
2018-07-04 21:37:02	2018	7	4	21	37	2	55.005	117.232.124.99	117.232.124.97	0	31609	ICMP	12	1008	0	0	0.0094332076643439
